year,fossil,nuclear,renewable
1980,22.1813233032753,10.1886529610639,0.348265903696441
1981,21.1238026942581,10.2614864518773,0.486093325820827
1982,22.9968323140114,9.89727609984794,0.552215185788527
1983,22.3580903807959,11.9191820121129,0.511242429443641
1984,22.0452621221482,11.9470950321503,0.534770371387382
1985,20.2787922633731,13.1880464058155,0.365432722898707
1986,18.0813186531705,15.2124539466101,0.39809766947434
1987,20.2449178636488,15.5690300011285,0.465896084215957
1988,22.3484593881836,16.3821223395633,0.491264001518273
1989,24.9798786713917,15.9913508318818,0.696137906180551
1990,22.4756815291645,15.1370941475933,0.820262176868773
1991,21.8781774806721,16.7033459793376,0.783540920542579
1992,22.8235235325662,15.488228431284,0.86991787098845
1993,20.6140754758822,17.6534483957475,0.916903613303089
1994,20.1838131419018,19.4060175678861,1.04287953526624
1995,21.5142721939983,17.4719868572602,1.01838376443067
1996,20.6927909042831,16.1917096184693,1.03084326330139
1997,23.2519177126918,14.3877266387727,1.21112273361227
1998,26.8520018730559,12.7323292661431,1.31398791772085
1999,26.1130159168833,12.6939519298033,1.46076052129304
2000,27.3697316362724,12.0210503371885,1.40093395597065
2001,28.9541863067585,13.0040014920818,1.51683678659839
2002,27.5411788581371,12.5634192674804,1.57329687037351
2003,28.3718547618321,12.7034206214316,1.67706456876694
2004,26.4767906112209,15.0678902753119,1.62769956573562
2005,25.7491224175266,14.8070927325553,1.20834499689508
2006,24.42278784047,16.1295049550595,1.3398994663782
2007,25.016522724733,14.9234526907297,1.36763461630561
2008,23.4369091238429,15.2567202976983,1.32117922594628
2009,22.4266167410328,14.8607388224039,1.89052100258151
2010,23.3310955961332,15.2151584317938,2.47415413533835
2011,22.8592070372664,14.8603502754887,2.61611013194874
2012,22.2709818112862,14.9905974937185,2.63997092334192
2013,20.9174128630329,15.6563500856688,3.72326255819726
2014,20.4304434900033,16.4114772737665,4.50714357565911
2015,17.864093967703,16.5138704349189,5.54706540966758