year,fossil,nuclear,renewable
1980,82.8247630484196,11.9202727623622,0.611570956812626
1981,80.6671270393405,14.0106512848032,0.627275584356166
1982,78.8218128683704,15.899288413596,0.56503933912828
1983,78.8123151779535,16.3719301189153,0.517816320966423
1984,74.6968104237997,20.7293639328105,0.525601460953475
1985,69.1566774243123,26.6330490241279,0.544029506685108
1986,70.5894640417161,25.0068511133299,0.498262787626985
1987,68.6953194072393,26.7170248102144,0.434899814691583
1988,66.8398801701306,28.6633924866891,0.434282748044722
1989,66.8543246554969,29.0046412162247,0.455689571346814
1990,68.0175294439879,27.8404090203597,0.304391490915731
1991,68.6355272047269,27.4770167927648,0.389678738993629
1992,65.7638024854217,29.7568543974576,0.438096808526586
1993,65.9269991406485,29.3358495043896,0.505658513991736
1994,65.8624727487362,28.6941289591683,0.666977656343713
1995,65.4126956123525,28.7325408116153,0.779258803259674
1996,65.1267226085046,29.0573116321131,0.83422463777327
1997,63.6857654317158,31.0811279335634,1.0410374974225
1998,65.0194161575017,29.2634532699706,1.39144602851324
1999,63.1776597381209,30.7674488050747,1.64149526282927
2000,63.1546024640363,29.6351821468322,2.40130837496265
2001,62.6987073069295,29.4396153198393,2.60566502717027
2002,62.7929355241136,28.3256064912347,3.66919034837805
2003,64.3785733337972,27.3457885398184,4.61710760218223
2004,62.6816995442682,27.3381824727338,5.9790052445979
2005,62.3168236440403,26.4785644689834,6.9611886976291
2006,61.0271015216553,26.435995018428,8.15985282868576
2007,62.7923675518375,22.1780346966763,10.5972733140486
2008,60.7520728900659,23.4078943220152,11.4767174248873
2009,59.7388663075499,22.8711485068631,12.8527745666699
2010,59.4572466855947,22.4321438660162,13.3830633770785
2011,60.400870842583,17.7809653046302,17.4731731738326
2012,59.6811379501634,15.9463090691627,19.5125040483039
2013,59.2383224450782,15.3710037996982,20.4390586859838
2014,56.7323430952925,15.6171515488682,22.9807472770598
2015,53.9648658654271,14.2175367071314,27.4254433589484